…
2. How many genera and species are represented in the data? What are the total number of observations? Which species is most/ least frequently sampled in the study?
There are 26 genera and 40 species represented. The total number of observations is 34,786. The most studied sampled species is the merriami and the least are the clarki, scutalatus, tereticaudus, tigris, uniparens, and viridis.


```r
deserts %>% 
  count(genus, sort = T)
```

```
## # A tibble: 26 × 2
##    genus                n
##    <chr>            <int>
##  1 Dipodomys        16167
##  2 Chaetodipus       6029
##  3 Onychomys         3267
##  4 Reithrodontomys   2694
##  5 Peromyscus        2234
##  6 Perognathus       1629
##  7 Neotoma           1252
##  8 Ammospermophilus   437
##  9 Amphispiza         303
## 10 Spermophilus       249
## # ℹ 16 more rows
```

```r
deserts %>% 
  count(species, sort = T)
```

```
## # A tibble: 40 × 2
##    species          n
##    <chr>        <int>
##  1 merriami     10596
##  2 penicillatus  3123
##  3 ordii         3027
##  4 baileyi       2891
##  5 megalotis     2609
##  6 spectabilis   2504
##  7 torridus      2249
##  8 flavus        1597
##  9 eremicus      1299
## 10 albigula      1252
## # ℹ 30 more rows
```
…
```r
deserts %>% 
  group_by(species) %>% 
  summarise(n_samples = n()) %>% 
  arrange(desc(n_samples))
```

```
## # A tibble: 40 × 2
##    species      n_samples
##    <chr>            <int>
##  1 merriami         10596
##  2 penicillatus      3123
##  3 ordii             3027
##  4 baileyi           2891
##  5 megalotis         2609
##  6 spectabilis       2504
##  7 torridus          2249
##  8 flavus            1597
##  9 eremicus          1299
## 10 albigula          1252
## # ℹ 30 more rows
```
…
9. Which two species have, on average, the highest weight? Once you have identified them, make a new column that is a ratio of `weight` to `hindfoot_length`. Make a plot that shows the range of this new ratio and fill by sex.

```r
deserts %>% 
  group_by(species) %>% 
  filter(!is.na(weight)) %>% 
  summarise(mean_weight = mean(weight, na.rm = T)) %>% 
  arrange(desc(mean_weight))
```

```
## # A tibble: 22 × 2
##    species      mean_weight
##    <chr>              <dbl>
##  1 albigula           159. 
##  2 spectabilis        120. 
##  3 spilosoma           93.5
##  4 hispidus            65.6
##  5 fulviventer         58.9
##  6 ochrognathus        55.4
##  7 ordii               48.9
##  8 merriami            43.2
##  9 baileyi             31.7
## 10 leucogaster         31.6
## # ℹ 12 more rows
```
…
