…
```r
colleges %>%
  group_by(city) %>% 
  summarise(max_college = n_distinct(instnm)) %>% 
  arrange(desc(max_college))
```

```
## # A tibble: 161 × 2
##    city          max_college
##    <chr>               <int>
##  1 Los Angeles            24
##  2 San Diego              18
##  3 San Francisco          15
##  4 Sacramento             10
##  5 Berkeley                9
##  6 Oakland                 9
##  7 Claremont               7
##  8 Pasadena                6
##  9 Fresno                  5
## 10 Irvine                  5
## # ℹ 151 more rows
```
…
```r
colleges %>% 
  group_by(city, stabbr) %>% 
  summarise(mean_cost = mean(costt4_a, na.rm = T)) %>% 
  arrange(desc(mean_cost))
```

```
## `summarise()` has grouped output by 'city'. You can override using the
## `.groups` argument.
```

```
## # A tibble: 161 × 3
## # Groups:   city [161]
##    city                stabbr mean_cost
##    <chr>               <chr>      <dbl>
##  1 Claremont           CA         66498
##  2 Malibu              CA         66152
##  3 Valencia            CA         64686
##  4 Orange              CA         64501
##  5 Redlands            CA         61542
##  6 Moraga              CA         61095
##  7 Atherton            CA         56035
##  8 Thousand Oaks       CA         54373
##  9 Rancho Palos Verdes CA         50758
## 10 La Verne            CA         50603
## # ℹ 151 more rows
```
…
