…
```r
naniar::miss_var_summary(global_sharks)
```

```
## # A tibble: 21 × 3
##    variable n_miss pct_miss
##    <chr>     <int>    <dbl>
##  1 time       3518    51.1 
##  2 species    3118    45.3 
##  3 age        2982    43.3 
##  4 activity    586     8.51
##  5 sex         572     8.30
##  6 location    565     8.20
##  7 area        481     6.98
##  8 date        305     4.43
##  9 name        220     3.19
## 10 year        132     1.92
## # ℹ 11 more rows
```
…
```r
great_white_attacks %>% 
  group_by(country) %>% 
  summarise(total_incidents = n()) %>% 
  arrange(desc(total_incidents))
```

```
## # A tibble: 40 × 2
##    country      total_incidents
##    <chr>                  <int>
##  1 USA                      228
##  2 AUSTRALIA                180
##  3 SOUTH AFRICA             170
##  4 ITALY                     26
##  5 NEW ZEALAND               21
##  6 CROATIA                   11
##  7 CHILE                      6
##  8 GREECE                     5
##  9 BRAZIL                     4
## 10 JAPAN                      4
## # ℹ 30 more rows
```
…
