…
2. Notice that we have some neutral superheros! Who are they? List their names below. 

The superheros that are neutral are: Bizarro, Black Flash, Captain Cold, Copycat, Deadpool, Deathstroke, Etrigan, Galactus, Gladiator, Indigo, Juggernaut, Living Tribunal, Lobo, Man-Bat, One-Above-All, Raven, Red Hood, Red Hulk, Robin VI, Sandman, Sentry, Sinestro, The Comedian, and Toad. 

```r
superhero_info %>%
  select(name, alignment) %>% 
  filter(alignment == "neutral")
```

```
## # A tibble: 24 × 2
##    name         alignment
##    <chr>        <chr>    
##  1 Bizarro      neutral  
##  2 Black Flash  neutral  
##  3 Captain Cold neutral  
##  4 Copycat      neutral  
##  5 Deadpool     neutral  
##  6 Deathstroke  neutral  
##  7 Etrigan      neutral  
##  8 Galactus     neutral  
##  9 Gladiator    neutral  
## 10 Indigo       neutral  
## # ℹ 14 more rows
```


## `superhero_info`
3. Let's say we are only interested in the variables name, alignment, and "race". How would you isolate these variables from `superhero_info`?

```r
superhero_info %>%
  select(name, alignment, race) %>%
  filter(is.na(race) | tolower(race) %in% c("human"))
```

```
## # A tibble: 512 × 3
##    name          alignment race 
##    <chr>         <chr>     <chr>
##  1 A-Bomb        good      Human
##  2 Absorbing Man bad       Human
##  3 Adam Monroe   good      <NA> 
##  4 Adam Strange  good      Human
##  5 Agent 13      good      <NA> 
##  6 Agent Bob     good      Human
##  7 Agent Zero    good      <NA> 
##  8 Air-Walker    bad       <NA> 
##  9 Alan Scott    good      <NA> 
## 10 Alex Mercer   bad       Human
## # ℹ 502 more rows
```
…
## Not Human
4. List all of the superheros that are not human.

```r
superhero_info %>%
  select(name, alignment, race) %>%
  filter(!(tolower(race) %in% c("human")) | is.na(race))
```

```
## # A tibble: 526 × 3
##    name        alignment race             
##    <chr>       <chr>     <chr>            
##  1 Abe Sapien  good      Icthyo Sapien    
##  2 Abin Sur    good      Ungaran          
##  3 Abomination bad       Human / Radiation
##  4 Abraxas     bad       Cosmic Entity    
##  5 Adam Monroe good      <NA>             
##  6 Agent 13    good      <NA>             
##  7 Agent Zero  good      <NA>             
##  8 Air-Walker  bad       <NA>             
##  9 Ajax        bad       Cyborg           
## 10 Alan Scott  good      <NA>             
## # ℹ 516 more rows
```
…
```
##  [1] "name"       "gender"     "eye_color"  "race"       "hair_color"
##  [6] "height"     "publisher"  "skin_color" "alignment"  "weight"
```


```r
bad_guys %>% 
  select(name, height) %>% 
  filter(height > 200)
```

```
## # A tibble: 25 × 2
##    name           height
##    <chr>           <dbl>
##  1 Abomination       203
##  2 Alien             244
##  3 Amazo             257
##  4 Apocalypse        213
##  5 Bane              203
##  6 Bloodaxe          218
##  7 Darkseid          267
##  8 Doctor Doom       201
##  9 Doctor Doom II    201
## 10 Doomsday          244
## # ℹ 15 more rows
```
…
12. Who has the highest height to weight ratio?

Groot has the highest height to weight ratio. 

```r
height_weight_ratio
```

```
## # A tibble: 734 × 2
##    name            height_weight_ratio
##    <chr>                         <dbl>
##  1 Groot                        175.  
##  2 Galactus                      54.8 
##  3 Fin Fang Foom                 54.2 
##  4 Longshot                       5.22
##  5 Jack-Jack                      5.07
##  6 Rocket Raccoon                 4.88
##  7 Dash                           4.52
##  8 Howard the Duck                4.39
##  9 Swarm                          4.17
## 10 Yoda                           3.88
## # ℹ 724 more rows
```
…
```r
superhero_powers %>%
  select(hero_names, agility, stealth, super_strength, stamina) %>% 
  filter(agility & stealth & super_strength & stamina)
```

```
## # A tibble: 40 × 5
##    hero_names  agility stealth super_strength stamina
##    <chr>       <lgl>   <lgl>   <lgl>          <lgl>  
##  1 Alex Mercer TRUE    TRUE    TRUE           TRUE   
##  2 Angel       TRUE    TRUE    TRUE           TRUE   
##  3 Ant-Man II  TRUE    TRUE    TRUE           TRUE   
##  4 Aquaman     TRUE    TRUE    TRUE           TRUE   
##  5 Batman      TRUE    TRUE    TRUE           TRUE   
##  6 Black Flash TRUE    TRUE    TRUE           TRUE   
##  7 Black Manta TRUE    TRUE    TRUE           TRUE   
##  8 Brundlefly  TRUE    TRUE    TRUE           TRUE   
##  9 Buffy       TRUE    TRUE    TRUE           TRUE   
## 10 Cable       TRUE    TRUE    TRUE           TRUE   
## # ℹ 30 more rows
```
…
