…
fisheries_tidy$catch <- as.numeric(fisheries_tidy$catch)
```

3. How many countries are represented in the data? Provide a count and list their names.
203 countries are represented in the data. 

```r
fisheries_tidy %>% 
  count(country)
```

```
## # A tibble: 203 × 2
##    country                   n
##    <fct>                 <int>
##  1 "Saint Barth\xe9lemy"     6
##  2 "R\xe9union"            736
##  3 "C\xf4te d'Ivoire"     1859
##  4 "Cura\xe7ao"             18
##  5 "Albania"               934
##  6 "Algeria"              1561
##  7 "American Samoa"        556
##  8 "Angola"               2119
##  9 "Anguilla"              129
## 10 "Antigua and Barbuda"   356
## # ℹ 193 more rows
```
…
```r
fisheries_tidy %>% 
  select(country, isscaap_taxonomic_group, asfis_species_name, asfis_species_number, year, catch)
```

```
## # A tibble: 376,771 × 6
##    country isscaap_taxonomic_group asfis_species_name asfis_species_number  year
##    <fct>   <chr>                   <chr>              <fct>                <dbl>
##  1 Albania Sharks, rays, chimaeras Squatinidae        10903XXXXX            1995
##  2 Albania Sharks, rays, chimaeras Squatinidae        10903XXXXX            1996
##  3 Albania Sharks, rays, chimaeras Squatinidae        10903XXXXX            1997
##  4 Albania Sharks, rays, chimaeras Squatinidae        10903XXXXX            1998
##  5 Albania Sharks, rays, chimaeras Squatinidae        10903XXXXX            1999
##  6 Albania Sharks, rays, chimaeras Squatinidae        10903XXXXX            2000
##  7 Albania Sharks, rays, chimaeras Squatinidae        10903XXXXX            2001
##  8 Albania Sharks, rays, chimaeras Squatinidae        10903XXXXX            2002
##  9 Albania Sharks, rays, chimaeras Squatinidae        10903XXXXX            2003
## 10 Albania Sharks, rays, chimaeras Squatinidae        10903XXXXX            2004
## # ℹ 376,761 more rows
## # ℹ 1 more variable: catch <dbl>
```
…
```
## Warning: There were 1705 warnings in `summarise()`.
## The first warning was:
## ℹ In argument: `max_catch = max(catch, na.rm = T)`.
## ℹ In group 261: `country = "American Samoa"`, `year = 1950`.
## Caused by warning in `max()`:
## ! no non-missing arguments to max; returning -Inf
## ℹ Run `dplyr::last_dplyr_warnings()` to see the 1704 remaining warnings.
```

```
## # A tibble: 193 × 4
## # Groups:   country, year [193]
##    country                   year max_catch total
##    <fct>                    <dbl>     <dbl> <int>
##  1 China                     2000      9068    93
##  2 Peru                      2000      5717    54
##  3 Russian Federation        2000      5065   192
##  4 Viet Nam                  2000      4945    13
##  5 Chile                     2000      4299    91
##  6 United States of America  2000      2438   438
##  7 Philippines               2000       999   105
##  8 Japan                     2000       988   241
##  9 Bangladesh                2000       977     4
## 10 Senegal                   2000       970    81
## # ℹ 183 more rows
```
…
```
## `summarise()` has grouped output by 'country'. You can override using the
## `.groups` argument.
```

```
## # A tibble: 267 × 3
## # Groups:   country [37]
##    country             year max_sardines
##    <fct>              <dbl>        <dbl>
##  1 Morocco             1994          947
##  2 Morocco             1996          925
##  3 Spain               1996          912
##  4 Morocco             2000          859
##  5 Morocco             1990          845
##  6 Morocco             1991          827
##  7 Morocco             1998          723
##  8 Morocco             1993          710
##  9 Russian Federation  1992          627
## 10 Russian Federation  1991          579
## # ℹ 257 more rows
```
…
```r
fisheries_tidy %>%
  select(country, isscaap_taxonomic_group, year, catch) %>% 
  filter(isscaap_taxonomic_group == "Squids, cuttlefishes, octopuses") %>% 
  filter(between(year, 2008, 2012)) %>% 
  arrange(desc(catch))
```

```
## # A tibble: 1,801 × 4
##    country                  isscaap_taxonomic_group          year catch
##    <fct>                    <chr>                           <dbl> <dbl>
##  1 Indonesia                Squids, cuttlefishes, octopuses  2012   991
##  2 China                    Squids, cuttlefishes, octopuses  2008   981
##  3 Chile                    Squids, cuttlefishes, octopuses  2012   965
##  4 United States of America Squids, cuttlefishes, octopuses  2010   901
##  5 China                    Squids, cuttlefishes, octopuses  2012   845
##  6 Japan                    Squids, cuttlefishes, octopuses  2010   832
##  7 China                    Squids, cuttlefishes, octopuses  2010   826
##  8 Peru                     Squids, cuttlefishes, octopuses  2010   822
##  9 Korea, Republic of       Squids, cuttlefishes, octopuses  2008   816
## 10 Peru                     Squids, cuttlefishes, octopuses  2009   805
## # ℹ 1,791 more rows
```

9. Which species had the highest catch total between 2008-2012? (hint: Osteichthyes is not a species)
Theragra chalcogramma had the highest catch total between 2008 and 2012.

```r
fisheries_tidy %>%
  filter(asfis_species_name != "Osteichthyes", between(year, 2008, 2012)) %>% 
  group_by(asfis_species_name) %>% 
  summarise(max_species_catch = sum(catch, na.rm = T)) %>% 
  arrange(desc(max_species_catch))
```

```
## # A tibble: 1,471 × 2
##    asfis_species_name    max_species_catch
##    <chr>                             <dbl>
##  1 Theragra chalcogramma             41075
##  2 Engraulis ringens                 35523
##  3 Katsuwonus pelamis                32153
##  4 Trichiurus lepturus               30400
##  5 Clupea harengus                   28527
##  6 Thunnus albacares                 20119
##  7 Scomber japonicus                 14723
##  8 Gadus morhua                      13253
##  9 Thunnus alalunga                  12019
## 10 Natantia                          11984
## # ℹ 1,461 more rows
```
…
